('C:\\hil\\test\\close_contactor_barebones\\build\\close_contactor_barebones\\PYZ-00.pyz',
 [('win32com',
   'C:\\Users\\anvanger\\AppData\\Roaming\\Python\\Python39\\site-packages\\win32com\\__init__.py',
   'PYMODULE'),
  ('win32com.server.util',
   'C:\\Users\\anvanger\\AppData\\Roaming\\Python\\Python39\\site-packages\\win32com\\server\\util.py',
   'PYMODULE'),
  ('win32com.server.dispatcher',
   'C:\\Users\\anvanger\\AppData\\Roaming\\Python\\Python39\\site-packages\\win32com\\server\\dispatcher.py',
   'PYMODULE'),
  ('win32traceutil',
   'C:\\Users\\anvanger\\AppData\\Roaming\\Python\\Python39\\site-packages\\win32\\lib\\win32traceutil.py',
   'PYMODULE'),
  ('win32com.util',
   'C:\\Users\\anvanger\\AppData\\Roaming\\Python\\Python39\\site-packages\\win32com\\util.py',
   'PYMODULE'),
  ('win32con',
   'C:\\Users\\anvanger\\AppData\\Roaming\\Python\\Python39\\site-packages\\win32\\lib\\win32con.py',
   'PYMODULE'),
  ('win32com.server.exception',
   'C:\\Users\\anvanger\\AppData\\Roaming\\Python\\Python39\\site-packages\\win32com\\server\\exception.py',
   'PYMODULE'),
  ('winerror',
   'C:\\Users\\anvanger\\AppData\\Roaming\\Python\\Python39\\site-packages\\win32\\lib\\winerror.py',
   'PYMODULE'),
  ('win32com.server.policy',
   'C:\\Users\\anvanger\\AppData\\Roaming\\Python\\Python39\\site-packages\\win32com\\server\\policy.py',
   'PYMODULE'),
  ('win32com.client',
   'C:\\Users\\anvanger\\AppData\\Roaming\\Python\\Python39\\site-packages\\win32com\\client\\__init__.py',
   'PYMODULE'),
  ('win32com.client.makepy',
   'C:\\Users\\anvanger\\AppData\\Roaming\\Python\\Python39\\site-packages\\win32com\\client\\makepy.py',
   'PYMODULE'),
  ('getopt', 'c:\\program files\\python39\\lib\\getopt.py', 'PYMODULE'),
  ('gettext', 'c:\\program files\\python39\\lib\\gettext.py', 'PYMODULE'),
  ('copy', 'c:\\program files\\python39\\lib\\copy.py', 'PYMODULE'),
  ('struct', 'c:\\program files\\python39\\lib\\struct.py', 'PYMODULE'),
  ('pywin.dialogs.status',
   'C:\\Users\\anvanger\\AppData\\Roaming\\Python\\Python39\\site-packages\\Pythonwin\\pywin\\dialogs\\status.py',
   'PYMODULE'),
  ('threading', 'c:\\program files\\python39\\lib\\threading.py', 'PYMODULE'),
  ('_threading_local',
   'c:\\program files\\python39\\lib\\_threading_local.py',
   'PYMODULE'),
  ('contextlib', 'c:\\program files\\python39\\lib\\contextlib.py', 'PYMODULE'),
  ('pywin.mfc.thread',
   'C:\\Users\\anvanger\\AppData\\Roaming\\Python\\Python39\\site-packages\\Pythonwin\\pywin\\mfc\\thread.py',
   'PYMODULE'),
  ('pywin.mfc.object',
   'C:\\Users\\anvanger\\AppData\\Roaming\\Python\\Python39\\site-packages\\Pythonwin\\pywin\\mfc\\object.py',
   'PYMODULE'),
  ('pywin.mfc.dialog',
   'C:\\Users\\anvanger\\AppData\\Roaming\\Python\\Python39\\site-packages\\Pythonwin\\pywin\\mfc\\dialog.py',
   'PYMODULE'),
  ('pywin.mfc.window',
   'C:\\Users\\anvanger\\AppData\\Roaming\\Python\\Python39\\site-packages\\Pythonwin\\pywin\\mfc\\window.py',
   'PYMODULE'),
  ('pywin.mfc',
   'C:\\Users\\anvanger\\AppData\\Roaming\\Python\\Python39\\site-packages\\Pythonwin\\pywin\\mfc\\__init__.py',
   'PYMODULE'),
  ('pywin.dialogs',
   'C:\\Users\\anvanger\\AppData\\Roaming\\Python\\Python39\\site-packages\\Pythonwin\\pywin\\dialogs\\__init__.py',
   'PYMODULE'),
  ('pywin',
   'C:\\Users\\anvanger\\AppData\\Roaming\\Python\\Python39\\site-packages\\Pythonwin\\pywin\\__init__.py',
   'PYMODULE'),
  ('importlib',
   'c:\\program files\\python39\\lib\\importlib\\__init__.py',
   'PYMODULE'),
  ('importlib._common',
   'c:\\program files\\python39\\lib\\importlib\\_common.py',
   'PYMODULE'),
  ('zipfile', 'c:\\program files\\python39\\lib\\zipfile.py', 'PYMODULE'),
  ('argparse', 'c:\\program files\\python39\\lib\\argparse.py', 'PYMODULE'),
  ('textwrap', 'c:\\program files\\python39\\lib\\textwrap.py', 'PYMODULE'),
  ('py_compile', 'c:\\program files\\python39\\lib\\py_compile.py', 'PYMODULE'),
  ('ntpath', 'c:\\program files\\python39\\lib\\ntpath.py', 'PYMODULE'),
  ('string', 'c:\\program files\\python39\\lib\\string.py', 'PYMODULE'),
  ('genericpath',
   'c:\\program files\\python39\\lib\\genericpath.py',
   'PYMODULE'),
  ('lzma', 'c:\\program files\\python39\\lib\\lzma.py', 'PYMODULE'),
  ('_compression',
   'c:\\program files\\python39\\lib\\_compression.py',
   'PYMODULE'),
  ('bz2', 'c:\\program files\\python39\\lib\\bz2.py', 'PYMODULE'),
  ('stat', 'c:\\program files\\python39\\lib\\stat.py', 'PYMODULE'),
  ('posixpath', 'c:\\program files\\python39\\lib\\posixpath.py', 'PYMODULE'),
  ('importlib.util',
   'c:\\program files\\python39\\lib\\importlib\\util.py',
   'PYMODULE'),
  ('importlib.abc',
   'c:\\program files\\python39\\lib\\importlib\\abc.py',
   'PYMODULE'),
  ('typing', 'c:\\program files\\python39\\lib\\typing.py', 'PYMODULE'),
  ('pathlib', 'c:\\program files\\python39\\lib\\pathlib.py', 'PYMODULE'),
  ('urllib.parse',
   'c:\\program files\\python39\\lib\\urllib\\parse.py',
   'PYMODULE'),
  ('urllib',
   'c:\\program files\\python39\\lib\\urllib\\__init__.py',
   'PYMODULE'),
  ('fnmatch', 'c:\\program files\\python39\\lib\\fnmatch.py', 'PYMODULE'),
  ('importlib.machinery',
   'c:\\program files\\python39\\lib\\importlib\\machinery.py',
   'PYMODULE'),
  ('importlib._bootstrap_external',
   'c:\\program files\\python39\\lib\\importlib\\_bootstrap_external.py',
   'PYMODULE'),
  ('importlib.metadata',
   'c:\\program files\\python39\\lib\\importlib\\metadata.py',
   'PYMODULE'),
  ('configparser',
   'c:\\program files\\python39\\lib\\configparser.py',
   'PYMODULE'),
  ('email', 'c:\\program files\\python39\\lib\\email\\__init__.py', 'PYMODULE'),
  ('email.parser',
   'c:\\program files\\python39\\lib\\email\\parser.py',
   'PYMODULE'),
  ('email._policybase',
   'c:\\program files\\python39\\lib\\email\\_policybase.py',
   'PYMODULE'),
  ('email.utils',
   'c:\\program files\\python39\\lib\\email\\utils.py',
   'PYMODULE'),
  ('email._parseaddr',
   'c:\\program files\\python39\\lib\\email\\_parseaddr.py',
   'PYMODULE'),
  ('calendar', 'c:\\program files\\python39\\lib\\calendar.py', 'PYMODULE'),
  ('datetime', 'c:\\program files\\python39\\lib\\datetime.py', 'PYMODULE'),
  ('_strptime', 'c:\\program files\\python39\\lib\\_strptime.py', 'PYMODULE'),
  ('socket', 'c:\\program files\\python39\\lib\\socket.py', 'PYMODULE'),
  ('selectors', 'c:\\program files\\python39\\lib\\selectors.py', 'PYMODULE'),
  ('random', 'c:\\program files\\python39\\lib\\random.py', 'PYMODULE'),
  ('statistics', 'c:\\program files\\python39\\lib\\statistics.py', 'PYMODULE'),
  ('decimal', 'c:\\program files\\python39\\lib\\decimal.py', 'PYMODULE'),
  ('_pydecimal', 'c:\\program files\\python39\\lib\\_pydecimal.py', 'PYMODULE'),
  ('contextvars',
   'c:\\program files\\python39\\lib\\contextvars.py',
   'PYMODULE'),
  ('fractions', 'c:\\program files\\python39\\lib\\fractions.py', 'PYMODULE'),
  ('numbers', 'c:\\program files\\python39\\lib\\numbers.py', 'PYMODULE'),
  ('hashlib', 'c:\\program files\\python39\\lib\\hashlib.py', 'PYMODULE'),
  ('logging',
   'c:\\program files\\python39\\lib\\logging\\__init__.py',
   'PYMODULE'),
  ('pickle', 'c:\\program files\\python39\\lib\\pickle.py', 'PYMODULE'),
  ('pprint', 'c:\\program files\\python39\\lib\\pprint.py', 'PYMODULE'),
  ('doctest', 'c:\\program files\\python39\\lib\\doctest.py', 'PYMODULE'),
  ('unittest',
   'c:\\program files\\python39\\lib\\unittest\\__init__.py',
   'PYMODULE'),
  ('unittest.async_case',
   'c:\\program files\\python39\\lib\\unittest\\async_case.py',
   'PYMODULE'),
  ('asyncio',
   'c:\\program files\\python39\\lib\\asyncio\\__init__.py',
   'PYMODULE'),
  ('asyncio.unix_events',
   'c:\\program files\\python39\\lib\\asyncio\\unix_events.py',
   'PYMODULE'),
  ('asyncio.log',
   'c:\\program files\\python39\\lib\\asyncio\\log.py',
   'PYMODULE'),
  ('subprocess', 'c:\\program files\\python39\\lib\\subprocess.py', 'PYMODULE'),
  ('signal', 'c:\\program files\\python39\\lib\\signal.py', 'PYMODULE'),
  ('asyncio.windows_events',
   'c:\\program files\\python39\\lib\\asyncio\\windows_events.py',
   'PYMODULE'),
  ('asyncio.windows_utils',
   'c:\\program files\\python39\\lib\\asyncio\\windows_utils.py',
   'PYMODULE'),
  ('asyncio.selector_events',
   'c:\\program files\\python39\\lib\\asyncio\\selector_events.py',
   'PYMODULE'),
  ('ssl', 'c:\\program files\\python39\\lib\\ssl.py', 'PYMODULE'),
  ('base64', 'c:\\program files\\python39\\lib\\base64.py', 'PYMODULE'),
  ('asyncio.proactor_events',
   'c:\\program files\\python39\\lib\\asyncio\\proactor_events.py',
   'PYMODULE'),
  ('asyncio.base_subprocess',
   'c:\\program files\\python39\\lib\\asyncio\\base_subprocess.py',
   'PYMODULE'),
  ('asyncio.threads',
   'c:\\program files\\python39\\lib\\asyncio\\threads.py',
   'PYMODULE'),
  ('asyncio.subprocess',
   'c:\\program files\\python39\\lib\\asyncio\\subprocess.py',
   'PYMODULE'),
  ('asyncio.streams',
   'c:\\program files\\python39\\lib\\asyncio\\streams.py',
   'PYMODULE'),
  ('asyncio.queues',
   'c:\\program files\\python39\\lib\\asyncio\\queues.py',
   'PYMODULE'),
  ('asyncio.runners',
   'c:\\program files\\python39\\lib\\asyncio\\runners.py',
   'PYMODULE'),
  ('asyncio.events',
   'c:\\program files\\python39\\lib\\asyncio\\events.py',
   'PYMODULE'),
  ('asyncio.base_events',
   'c:\\program files\\python39\\lib\\asyncio\\base_events.py',
   'PYMODULE'),
  ('concurrent.futures',
   'c:\\program files\\python39\\lib\\concurrent\\futures\\__init__.py',
   'PYMODULE'),
  ('concurrent.futures.thread',
   'c:\\program files\\python39\\lib\\concurrent\\futures\\thread.py',
   'PYMODULE'),
  ('queue', 'c:\\program files\\python39\\lib\\queue.py', 'PYMODULE'),
  ('concurrent.futures.process',
   'c:\\program files\\python39\\lib\\concurrent\\futures\\process.py',
   'PYMODULE'),
  ('multiprocessing.queues',
   'c:\\program files\\python39\\lib\\multiprocessing\\queues.py',
   'PYMODULE'),
  ('multiprocessing.synchronize',
   'c:\\program files\\python39\\lib\\multiprocessing\\synchronize.py',
   'PYMODULE'),
  ('multiprocessing.heap',
   'c:\\program files\\python39\\lib\\multiprocessing\\heap.py',
   'PYMODULE'),
  ('multiprocessing.resource_tracker',
   'c:\\program files\\python39\\lib\\multiprocessing\\resource_tracker.py',
   'PYMODULE'),
  ('multiprocessing.spawn',
   'c:\\program files\\python39\\lib\\multiprocessing\\spawn.py',
   'PYMODULE'),
  ('runpy', 'c:\\program files\\python39\\lib\\runpy.py', 'PYMODULE'),
  ('pkgutil', 'c:\\program files\\python39\\lib\\pkgutil.py', 'PYMODULE'),
  ('zipimport', 'c:\\program files\\python39\\lib\\zipimport.py', 'PYMODULE'),
  ('multiprocessing.process',
   'c:\\program files\\python39\\lib\\multiprocessing\\process.py',
   'PYMODULE'),
  ('multiprocessing.util',
   'c:\\program files\\python39\\lib\\multiprocessing\\util.py',
   'PYMODULE'),
  ('multiprocessing.forkserver',
   'c:\\program files\\python39\\lib\\multiprocessing\\forkserver.py',
   'PYMODULE'),
  ('multiprocessing.context',
   'c:\\program files\\python39\\lib\\multiprocessing\\context.py',
   'PYMODULE'),
  ('multiprocessing.popen_spawn_win32',
   'c:\\program files\\python39\\lib\\multiprocessing\\popen_spawn_win32.py',
   'PYMODULE'),
  ('multiprocessing.popen_forkserver',
   'c:\\program files\\python39\\lib\\multiprocessing\\popen_forkserver.py',
   'PYMODULE'),
  ('multiprocessing.popen_spawn_posix',
   'c:\\program files\\python39\\lib\\multiprocessing\\popen_spawn_posix.py',
   'PYMODULE'),
  ('multiprocessing.popen_fork',
   'c:\\program files\\python39\\lib\\multiprocessing\\popen_fork.py',
   'PYMODULE'),
  ('multiprocessing.sharedctypes',
   'c:\\program files\\python39\\lib\\multiprocessing\\sharedctypes.py',
   'PYMODULE'),
  ('ctypes',
   'c:\\program files\\python39\\lib\\ctypes\\__init__.py',
   'PYMODULE'),
  ('ctypes._endian',
   'c:\\program files\\python39\\lib\\ctypes\\_endian.py',
   'PYMODULE'),
  ('multiprocessing.pool',
   'c:\\program files\\python39\\lib\\multiprocessing\\pool.py',
   'PYMODULE'),
  ('multiprocessing.dummy',
   'c:\\program files\\python39\\lib\\multiprocessing\\dummy\\__init__.py',
   'PYMODULE'),
  ('multiprocessing.dummy.connection',
   'c:\\program files\\python39\\lib\\multiprocessing\\dummy\\connection.py',
   'PYMODULE'),
  ('multiprocessing.managers',
   'c:\\program files\\python39\\lib\\multiprocessing\\managers.py',
   'PYMODULE'),
  ('multiprocessing.shared_memory',
   'c:\\program files\\python39\\lib\\multiprocessing\\shared_memory.py',
   'PYMODULE'),
  ('secrets', 'c:\\program files\\python39\\lib\\secrets.py', 'PYMODULE'),
  ('hmac', 'c:\\program files\\python39\\lib\\hmac.py', 'PYMODULE'),
  ('multiprocessing.reduction',
   'c:\\program files\\python39\\lib\\multiprocessing\\reduction.py',
   'PYMODULE'),
  ('multiprocessing.resource_sharer',
   'c:\\program files\\python39\\lib\\multiprocessing\\resource_sharer.py',
   'PYMODULE'),
  ('multiprocessing.connection',
   'c:\\program files\\python39\\lib\\multiprocessing\\connection.py',
   'PYMODULE'),
  ('xmlrpc.client',
   'c:\\program files\\python39\\lib\\xmlrpc\\client.py',
   'PYMODULE'),
  ('xmlrpc',
   'c:\\program files\\python39\\lib\\xmlrpc\\__init__.py',
   'PYMODULE'),
  ('xmlrpc.server',
   'c:\\program files\\python39\\lib\\xmlrpc\\server.py',
   'PYMODULE'),
  ('pydoc', 'c:\\program files\\python39\\lib\\pydoc.py', 'PYMODULE'),
  ('webbrowser', 'c:\\program files\\python39\\lib\\webbrowser.py', 'PYMODULE'),
  ('glob', 'c:\\program files\\python39\\lib\\glob.py', 'PYMODULE'),
  ('shlex', 'c:\\program files\\python39\\lib\\shlex.py', 'PYMODULE'),
  ('email.message',
   'c:\\program files\\python39\\lib\\email\\message.py',
   'PYMODULE'),
  ('email.policy',
   'c:\\program files\\python39\\lib\\email\\policy.py',
   'PYMODULE'),
  ('email.contentmanager',
   'c:\\program files\\python39\\lib\\email\\contentmanager.py',
   'PYMODULE'),
  ('email.quoprimime',
   'c:\\program files\\python39\\lib\\email\\quoprimime.py',
   'PYMODULE'),
  ('email.headerregistry',
   'c:\\program files\\python39\\lib\\email\\headerregistry.py',
   'PYMODULE'),
  ('email.iterators',
   'c:\\program files\\python39\\lib\\email\\iterators.py',
   'PYMODULE'),
  ('email.generator',
   'c:\\program files\\python39\\lib\\email\\generator.py',
   'PYMODULE'),
  ('email._encoded_words',
   'c:\\program files\\python39\\lib\\email\\_encoded_words.py',
   'PYMODULE'),
  ('quopri', 'c:\\program files\\python39\\lib\\quopri.py', 'PYMODULE'),
  ('uu', 'c:\\program files\\python39\\lib\\uu.py', 'PYMODULE'),
  ('optparse', 'c:\\program files\\python39\\lib\\optparse.py', 'PYMODULE'),
  ('pydoc_data.topics',
   'c:\\program files\\python39\\lib\\pydoc_data\\topics.py',
   'PYMODULE'),
  ('pydoc_data',
   'c:\\program files\\python39\\lib\\pydoc_data\\__init__.py',
   'PYMODULE'),
  ('tty', 'c:\\program files\\python39\\lib\\tty.py', 'PYMODULE'),
  ('sysconfig', 'c:\\program files\\python39\\lib\\sysconfig.py', 'PYMODULE'),
  ('_aix_support',
   'c:\\program files\\python39\\lib\\_aix_support.py',
   'PYMODULE'),
  ('_bootsubprocess',
   'c:\\program files\\python39\\lib\\_bootsubprocess.py',
   'PYMODULE'),
  ('_osx_support',
   'c:\\program files\\python39\\lib\\_osx_support.py',
   'PYMODULE'),
  ('distutils.log',
   'c:\\program files\\python39\\lib\\distutils\\log.py',
   'PYMODULE'),
  ('distutils',
   'c:\\program files\\python39\\lib\\distutils\\__init__.py',
   'PYMODULE'),
  ('distutils.archive_util',
   'c:\\program files\\python39\\lib\\distutils\\archive_util.py',
   'PYMODULE'),
  ('tarfile', 'c:\\program files\\python39\\lib\\tarfile.py', 'PYMODULE'),
  ('distutils.dir_util',
   'c:\\program files\\python39\\lib\\distutils\\dir_util.py',
   'PYMODULE'),
  ('distutils.file_util',
   'c:\\program files\\python39\\lib\\distutils\\file_util.py',
   'PYMODULE'),
  ('distutils.dep_util',
   'c:\\program files\\python39\\lib\\distutils\\dep_util.py',
   'PYMODULE'),
  ('distutils.spawn',
   'c:\\program files\\python39\\lib\\distutils\\spawn.py',
   'PYMODULE'),
  ('distutils.debug',
   'c:\\program files\\python39\\lib\\distutils\\debug.py',
   'PYMODULE'),
  ('distutils.errors',
   'c:\\program files\\python39\\lib\\distutils\\errors.py',
   'PYMODULE'),
  ('distutils.ccompiler',
   'c:\\program files\\python39\\lib\\distutils\\ccompiler.py',
   'PYMODULE'),
  ('distutils.fancy_getopt',
   'c:\\program files\\python39\\lib\\distutils\\fancy_getopt.py',
   'PYMODULE'),
  ('distutils.util',
   'c:\\program files\\python39\\lib\\distutils\\util.py',
   'PYMODULE'),
  ('distutils.filelist',
   'c:\\program files\\python39\\lib\\distutils\\filelist.py',
   'PYMODULE'),
  ('distutils.sysconfig',
   'c:\\program files\\python39\\lib\\distutils\\sysconfig.py',
   'PYMODULE'),
  ('distutils.text_file',
   'c:\\program files\\python39\\lib\\distutils\\text_file.py',
   'PYMODULE'),
  ('platform', 'c:\\program files\\python39\\lib\\platform.py', 'PYMODULE'),
  ('plistlib', 'c:\\program files\\python39\\lib\\plistlib.py', 'PYMODULE'),
  ('socketserver',
   'c:\\program files\\python39\\lib\\socketserver.py',
   'PYMODULE'),
  ('html', 'c:\\program files\\python39\\lib\\html\\__init__.py', 'PYMODULE'),
  ('html.entities',
   'c:\\program files\\python39\\lib\\html\\entities.py',
   'PYMODULE'),
  ('http.server',
   'c:\\program files\\python39\\lib\\http\\server.py',
   'PYMODULE'),
  ('http', 'c:\\program files\\python39\\lib\\http\\__init__.py', 'PYMODULE'),
  ('mimetypes', 'c:\\program files\\python39\\lib\\mimetypes.py', 'PYMODULE'),
  ('gzip', 'c:\\program files\\python39\\lib\\gzip.py', 'PYMODULE'),
  ('xml.parsers.expat',
   'c:\\program files\\python39\\lib\\xml\\parsers\\expat.py',
   'PYMODULE'),
  ('xml.parsers',
   'c:\\program files\\python39\\lib\\xml\\parsers\\__init__.py',
   'PYMODULE'),
  ('xml', 'c:\\program files\\python39\\lib\\xml\\__init__.py', 'PYMODULE'),
  ('xml.sax.expatreader',
   'c:\\program files\\python39\\lib\\xml\\sax\\expatreader.py',
   'PYMODULE'),
  ('xml.sax.saxutils',
   'c:\\program files\\python39\\lib\\xml\\sax\\saxutils.py',
   'PYMODULE'),
  ('urllib.request',
   'c:\\program files\\python39\\lib\\urllib\\request.py',
   'PYMODULE'),
  ('getpass', 'c:\\program files\\python39\\lib\\getpass.py', 'PYMODULE'),
  ('nturl2path', 'c:\\program files\\python39\\lib\\nturl2path.py', 'PYMODULE'),
  ('ftplib', 'c:\\program files\\python39\\lib\\ftplib.py', 'PYMODULE'),
  ('netrc', 'c:\\program files\\python39\\lib\\netrc.py', 'PYMODULE'),
  ('http.cookiejar',
   'c:\\program files\\python39\\lib\\http\\cookiejar.py',
   'PYMODULE'),
  ('urllib.response',
   'c:\\program files\\python39\\lib\\urllib\\response.py',
   'PYMODULE'),
  ('urllib.error',
   'c:\\program files\\python39\\lib\\urllib\\error.py',
   'PYMODULE'),
  ('xml.sax',
   'c:\\program files\\python39\\lib\\xml\\sax\\__init__.py',
   'PYMODULE'),
  ('xml.sax.handler',
   'c:\\program files\\python39\\lib\\xml\\sax\\handler.py',
   'PYMODULE'),
  ('xml.sax._exceptions',
   'c:\\program files\\python39\\lib\\xml\\sax\\_exceptions.py',
   'PYMODULE'),
  ('xml.sax.xmlreader',
   'c:\\program files\\python39\\lib\\xml\\sax\\xmlreader.py',
   'PYMODULE'),
  ('http.client',
   'c:\\program files\\python39\\lib\\http\\client.py',
   'PYMODULE'),
  ('multiprocessing',
   'c:\\program files\\python39\\lib\\multiprocessing\\__init__.py',
   'PYMODULE'),
  ('concurrent.futures._base',
   'c:\\program files\\python39\\lib\\concurrent\\futures\\_base.py',
   'PYMODULE'),
  ('concurrent',
   'c:\\program files\\python39\\lib\\concurrent\\__init__.py',
   'PYMODULE'),
  ('asyncio.trsock',
   'c:\\program files\\python39\\lib\\asyncio\\trsock.py',
   'PYMODULE'),
  ('asyncio.staggered',
   'c:\\program files\\python39\\lib\\asyncio\\staggered.py',
   'PYMODULE'),
  ('asyncio.tasks',
   'c:\\program files\\python39\\lib\\asyncio\\tasks.py',
   'PYMODULE'),
  ('asyncio.base_tasks',
   'c:\\program files\\python39\\lib\\asyncio\\base_tasks.py',
   'PYMODULE'),
  ('asyncio.locks',
   'c:\\program files\\python39\\lib\\asyncio\\locks.py',
   'PYMODULE'),
  ('asyncio.sslproto',
   'c:\\program files\\python39\\lib\\asyncio\\sslproto.py',
   'PYMODULE'),
  ('asyncio.transports',
   'c:\\program files\\python39\\lib\\asyncio\\transports.py',
   'PYMODULE'),
  ('asyncio.protocols',
   'c:\\program files\\python39\\lib\\asyncio\\protocols.py',
   'PYMODULE'),
  ('asyncio.futures',
   'c:\\program files\\python39\\lib\\asyncio\\futures.py',
   'PYMODULE'),
  ('asyncio.exceptions',
   'c:\\program files\\python39\\lib\\asyncio\\exceptions.py',
   'PYMODULE'),
  ('asyncio.coroutines',
   'c:\\program files\\python39\\lib\\asyncio\\coroutines.py',
   'PYMODULE'),
  ('asyncio.base_futures',
   'c:\\program files\\python39\\lib\\asyncio\\base_futures.py',
   'PYMODULE'),
  ('asyncio.format_helpers',
   'c:\\program files\\python39\\lib\\asyncio\\format_helpers.py',
   'PYMODULE'),
  ('asyncio.constants',
   'c:\\program files\\python39\\lib\\asyncio\\constants.py',
   'PYMODULE'),
  ('unittest.signals',
   'c:\\program files\\python39\\lib\\unittest\\signals.py',
   'PYMODULE'),
  ('unittest.main',
   'c:\\program files\\python39\\lib\\unittest\\main.py',
   'PYMODULE'),
  ('unittest.runner',
   'c:\\program files\\python39\\lib\\unittest\\runner.py',
   'PYMODULE'),
  ('unittest.loader',
   'c:\\program files\\python39\\lib\\unittest\\loader.py',
   'PYMODULE'),
  ('unittest.suite',
   'c:\\program files\\python39\\lib\\unittest\\suite.py',
   'PYMODULE'),
  ('unittest.case',
   'c:\\program files\\python39\\lib\\unittest\\case.py',
   'PYMODULE'),
  ('unittest._log',
   'c:\\program files\\python39\\lib\\unittest\\_log.py',
   'PYMODULE'),
  ('unittest.result',
   'c:\\program files\\python39\\lib\\unittest\\result.py',
   'PYMODULE'),
  ('unittest.util',
   'c:\\program files\\python39\\lib\\unittest\\util.py',
   'PYMODULE'),
  ('pdb', 'c:\\program files\\python39\\lib\\pdb.py', 'PYMODULE'),
  ('code', 'c:\\program files\\python39\\lib\\code.py', 'PYMODULE'),
  ('codeop', 'c:\\program files\\python39\\lib\\codeop.py', 'PYMODULE'),
  ('dis', 'c:\\program files\\python39\\lib\\dis.py', 'PYMODULE'),
  ('opcode', 'c:\\program files\\python39\\lib\\opcode.py', 'PYMODULE'),
  ('bdb', 'c:\\program files\\python39\\lib\\bdb.py', 'PYMODULE'),
  ('cmd', 'c:\\program files\\python39\\lib\\cmd.py', 'PYMODULE'),
  ('inspect', 'c:\\program files\\python39\\lib\\inspect.py', 'PYMODULE'),
  ('token', 'c:\\program files\\python39\\lib\\token.py', 'PYMODULE'),
  ('ast', 'c:\\program files\\python39\\lib\\ast.py', 'PYMODULE'),
  ('difflib', 'c:\\program files\\python39\\lib\\difflib.py', 'PYMODULE'),
  ('__future__', 'c:\\program files\\python39\\lib\\__future__.py', 'PYMODULE'),
  ('_compat_pickle',
   'c:\\program files\\python39\\lib\\_compat_pickle.py',
   'PYMODULE'),
  ('bisect', 'c:\\program files\\python39\\lib\\bisect.py', 'PYMODULE'),
  ('email.feedparser',
   'c:\\program files\\python39\\lib\\email\\feedparser.py',
   'PYMODULE'),
  ('email._header_value_parser',
   'c:\\program files\\python39\\lib\\email\\_header_value_parser.py',
   'PYMODULE'),
  ('email.header',
   'c:\\program files\\python39\\lib\\email\\header.py',
   'PYMODULE'),
  ('email.base64mime',
   'c:\\program files\\python39\\lib\\email\\base64mime.py',
   'PYMODULE'),
  ('email.charset',
   'c:\\program files\\python39\\lib\\email\\charset.py',
   'PYMODULE'),
  ('email.encoders',
   'c:\\program files\\python39\\lib\\email\\encoders.py',
   'PYMODULE'),
  ('email.errors',
   'c:\\program files\\python39\\lib\\email\\errors.py',
   'PYMODULE'),
  ('csv', 'c:\\program files\\python39\\lib\\csv.py', 'PYMODULE'),
  ('importlib._bootstrap',
   'c:\\program files\\python39\\lib\\importlib\\_bootstrap.py',
   'PYMODULE'),
  ('win32com.client.gencache',
   'C:\\Users\\anvanger\\AppData\\Roaming\\Python\\Python39\\site-packages\\win32com\\client\\gencache.py',
   'PYMODULE'),
  ('win32com.client.selecttlb',
   'C:\\Users\\anvanger\\AppData\\Roaming\\Python\\Python39\\site-packages\\win32com\\client\\selecttlb.py',
   'PYMODULE'),
  ('pywin.dialogs.list',
   'C:\\Users\\anvanger\\AppData\\Roaming\\Python\\Python39\\site-packages\\Pythonwin\\pywin\\dialogs\\list.py',
   'PYMODULE'),
  ('commctrl',
   'C:\\Users\\anvanger\\AppData\\Roaming\\Python\\Python39\\site-packages\\win32\\lib\\commctrl.py',
   'PYMODULE'),
  ('win32com.client.genpy',
   'C:\\Users\\anvanger\\AppData\\Roaming\\Python\\Python39\\site-packages\\win32com\\client\\genpy.py',
   'PYMODULE'),
  ('win32com.client.CLSIDToClass',
   'C:\\Users\\anvanger\\AppData\\Roaming\\Python\\Python39\\site-packages\\win32com\\client\\CLSIDToClass.py',
   'PYMODULE'),
  ('win32com.client.dynamic',
   'C:\\Users\\anvanger\\AppData\\Roaming\\Python\\Python39\\site-packages\\win32com\\client\\dynamic.py',
   'PYMODULE'),
  ('win32com.client.build',
   'C:\\Users\\anvanger\\AppData\\Roaming\\Python\\Python39\\site-packages\\win32com\\client\\build.py',
   'PYMODULE'),
  ('pywintypes',
   'C:\\Users\\anvanger\\AppData\\Roaming\\Python\\Python39\\site-packages\\win32\\lib\\pywintypes.py',
   'PYMODULE'),
  ('win32com.server',
   'C:\\Users\\anvanger\\AppData\\Roaming\\Python\\Python39\\site-packages\\win32com\\server\\__init__.py',
   'PYMODULE'),
  ('win32com.universal',
   'C:\\Users\\anvanger\\AppData\\Roaming\\Python\\Python39\\site-packages\\win32com\\universal.py',
   'PYMODULE'),
  ('win32com.client.util',
   'C:\\Users\\anvanger\\AppData\\Roaming\\Python\\Python39\\site-packages\\win32com\\client\\util.py',
   'PYMODULE'),
  ('pythoncom',
   'C:\\Users\\anvanger\\AppData\\Roaming\\Python\\Python39\\site-packages\\pythoncom.py',
   'PYMODULE'),
  ('tempfile', 'c:\\program files\\python39\\lib\\tempfile.py', 'PYMODULE'),
  ('shutil', 'c:\\program files\\python39\\lib\\shutil.py', 'PYMODULE'),
  ('os', 'c:\\program files\\python39\\lib\\os.py', 'PYMODULE'),
  ('pkg_resources',
   'c:\\program '
   'files\\python39\\lib\\site-packages\\pkg_resources\\__init__.py',
   'PYMODULE'),
  ('packaging.version',
   'C:\\Users\\anvanger\\AppData\\Roaming\\Python\\Python39\\site-packages\\packaging\\version.py',
   'PYMODULE'),
  ('packaging.utils',
   'C:\\Users\\anvanger\\AppData\\Roaming\\Python\\Python39\\site-packages\\packaging\\utils.py',
   'PYMODULE'),
  ('packaging.tags',
   'C:\\Users\\anvanger\\AppData\\Roaming\\Python\\Python39\\site-packages\\packaging\\tags.py',
   'PYMODULE'),
  ('packaging.specifiers',
   'C:\\Users\\anvanger\\AppData\\Roaming\\Python\\Python39\\site-packages\\packaging\\specifiers.py',
   'PYMODULE'),
  ('packaging.requirements',
   'C:\\Users\\anvanger\\AppData\\Roaming\\Python\\Python39\\site-packages\\packaging\\requirements.py',
   'PYMODULE'),
  ('pyparsing',
   'C:\\Users\\anvanger\\AppData\\Roaming\\Python\\Python39\\site-packages\\pyparsing\\__init__.py',
   'PYMODULE'),
  ('pyparsing.common',
   'C:\\Users\\anvanger\\AppData\\Roaming\\Python\\Python39\\site-packages\\pyparsing\\common.py',
   'PYMODULE'),
  ('pyparsing.testing',
   'C:\\Users\\anvanger\\AppData\\Roaming\\Python\\Python39\\site-packages\\pyparsing\\testing.py',
   'PYMODULE'),
  ('pyparsing.unicode',
   'C:\\Users\\anvanger\\AppData\\Roaming\\Python\\Python39\\site-packages\\pyparsing\\unicode.py',
   'PYMODULE'),
  ('pyparsing.helpers',
   'C:\\Users\\anvanger\\AppData\\Roaming\\Python\\Python39\\site-packages\\pyparsing\\helpers.py',
   'PYMODULE'),
  ('pyparsing.results',
   'C:\\Users\\anvanger\\AppData\\Roaming\\Python\\Python39\\site-packages\\pyparsing\\results.py',
   'PYMODULE'),
  ('pyparsing.core',
   'C:\\Users\\anvanger\\AppData\\Roaming\\Python\\Python39\\site-packages\\pyparsing\\core.py',
   'PYMODULE'),
  ('pyparsing.diagram',
   'C:\\Users\\anvanger\\AppData\\Roaming\\Python\\Python39\\site-packages\\pyparsing\\diagram\\__init__.py',
   'PYMODULE'),
  ('jinja2',
   'C:\\Users\\anvanger\\AppData\\Roaming\\Python\\Python39\\site-packages\\jinja2\\__init__.py',
   'PYMODULE'),
  ('jinja2.ext',
   'C:\\Users\\anvanger\\AppData\\Roaming\\Python\\Python39\\site-packages\\jinja2\\ext.py',
   'PYMODULE'),
  ('jinja2.parser',
   'C:\\Users\\anvanger\\AppData\\Roaming\\Python\\Python39\\site-packages\\jinja2\\parser.py',
   'PYMODULE'),
  ('jinja2.lexer',
   'C:\\Users\\anvanger\\AppData\\Roaming\\Python\\Python39\\site-packages\\jinja2\\lexer.py',
   'PYMODULE'),
  ('jinja2._identifier',
   'C:\\Users\\anvanger\\AppData\\Roaming\\Python\\Python39\\site-packages\\jinja2\\_identifier.py',
   'PYMODULE'),
  ('typing_extensions',
   'C:\\Users\\anvanger\\AppData\\Roaming\\Python\\Python39\\site-packages\\typing_extensions.py',
   'PYMODULE'),
  ('jinja2.defaults',
   'C:\\Users\\anvanger\\AppData\\Roaming\\Python\\Python39\\site-packages\\jinja2\\defaults.py',
   'PYMODULE'),
  ('jinja2.tests',
   'C:\\Users\\anvanger\\AppData\\Roaming\\Python\\Python39\\site-packages\\jinja2\\tests.py',
   'PYMODULE'),
  ('markupsafe',
   'C:\\Users\\anvanger\\AppData\\Roaming\\Python\\Python39\\site-packages\\markupsafe\\__init__.py',
   'PYMODULE'),
  ('markupsafe._native',
   'C:\\Users\\anvanger\\AppData\\Roaming\\Python\\Python39\\site-packages\\markupsafe\\_native.py',
   'PYMODULE'),
  ('jinja2.utils',
   'C:\\Users\\anvanger\\AppData\\Roaming\\Python\\Python39\\site-packages\\jinja2\\utils.py',
   'PYMODULE'),
  ('jinja2.constants',
   'C:\\Users\\anvanger\\AppData\\Roaming\\Python\\Python39\\site-packages\\jinja2\\constants.py',
   'PYMODULE'),
  ('json', 'c:\\program files\\python39\\lib\\json\\__init__.py', 'PYMODULE'),
  ('json.encoder',
   'c:\\program files\\python39\\lib\\json\\encoder.py',
   'PYMODULE'),
  ('json.decoder',
   'c:\\program files\\python39\\lib\\json\\decoder.py',
   'PYMODULE'),
  ('json.scanner',
   'c:\\program files\\python39\\lib\\json\\scanner.py',
   'PYMODULE'),
  ('jinja2.runtime',
   'C:\\Users\\anvanger\\AppData\\Roaming\\Python\\Python39\\site-packages\\jinja2\\runtime.py',
   'PYMODULE'),
  ('jinja2.async_utils',
   'C:\\Users\\anvanger\\AppData\\Roaming\\Python\\Python39\\site-packages\\jinja2\\async_utils.py',
   'PYMODULE'),
  ('jinja2.loaders',
   'C:\\Users\\anvanger\\AppData\\Roaming\\Python\\Python39\\site-packages\\jinja2\\loaders.py',
   'PYMODULE'),
  ('jinja2.filters',
   'C:\\Users\\anvanger\\AppData\\Roaming\\Python\\Python39\\site-packages\\jinja2\\filters.py',
   'PYMODULE'),
  ('jinja2.sandbox',
   'C:\\Users\\anvanger\\AppData\\Roaming\\Python\\Python39\\site-packages\\jinja2\\sandbox.py',
   'PYMODULE'),
  ('jinja2.exceptions',
   'C:\\Users\\anvanger\\AppData\\Roaming\\Python\\Python39\\site-packages\\jinja2\\exceptions.py',
   'PYMODULE'),
  ('jinja2.environment',
   'C:\\Users\\anvanger\\AppData\\Roaming\\Python\\Python39\\site-packages\\jinja2\\environment.py',
   'PYMODULE'),
  ('jinja2.debug',
   'C:\\Users\\anvanger\\AppData\\Roaming\\Python\\Python39\\site-packages\\jinja2\\debug.py',
   'PYMODULE'),
  ('jinja2.compiler',
   'C:\\Users\\anvanger\\AppData\\Roaming\\Python\\Python39\\site-packages\\jinja2\\compiler.py',
   'PYMODULE'),
  ('jinja2.visitor',
   'C:\\Users\\anvanger\\AppData\\Roaming\\Python\\Python39\\site-packages\\jinja2\\visitor.py',
   'PYMODULE'),
  ('jinja2.optimizer',
   'C:\\Users\\anvanger\\AppData\\Roaming\\Python\\Python39\\site-packages\\jinja2\\optimizer.py',
   'PYMODULE'),
  ('jinja2.idtracking',
   'C:\\Users\\anvanger\\AppData\\Roaming\\Python\\Python39\\site-packages\\jinja2\\idtracking.py',
   'PYMODULE'),
  ('jinja2.bccache',
   'C:\\Users\\anvanger\\AppData\\Roaming\\Python\\Python39\\site-packages\\jinja2\\bccache.py',
   'PYMODULE'),
  ('jinja2.nodes',
   'C:\\Users\\anvanger\\AppData\\Roaming\\Python\\Python39\\site-packages\\jinja2\\nodes.py',
   'PYMODULE'),
  ('pyparsing.actions',
   'C:\\Users\\anvanger\\AppData\\Roaming\\Python\\Python39\\site-packages\\pyparsing\\actions.py',
   'PYMODULE'),
  ('pyparsing.exceptions',
   'C:\\Users\\anvanger\\AppData\\Roaming\\Python\\Python39\\site-packages\\pyparsing\\exceptions.py',
   'PYMODULE'),
  ('pyparsing.util',
   'C:\\Users\\anvanger\\AppData\\Roaming\\Python\\Python39\\site-packages\\pyparsing\\util.py',
   'PYMODULE'),
  ('packaging.markers',
   'C:\\Users\\anvanger\\AppData\\Roaming\\Python\\Python39\\site-packages\\packaging\\markers.py',
   'PYMODULE'),
  ('packaging._structures',
   'C:\\Users\\anvanger\\AppData\\Roaming\\Python\\Python39\\site-packages\\packaging\\_structures.py',
   'PYMODULE'),
  ('packaging._musllinux',
   'C:\\Users\\anvanger\\AppData\\Roaming\\Python\\Python39\\site-packages\\packaging\\_musllinux.py',
   'PYMODULE'),
  ('packaging._manylinux',
   'C:\\Users\\anvanger\\AppData\\Roaming\\Python\\Python39\\site-packages\\packaging\\_manylinux.py',
   'PYMODULE'),
  ('packaging.__about__',
   'C:\\Users\\anvanger\\AppData\\Roaming\\Python\\Python39\\site-packages\\packaging\\__about__.py',
   'PYMODULE'),
  ('packaging',
   'C:\\Users\\anvanger\\AppData\\Roaming\\Python\\Python39\\site-packages\\packaging\\__init__.py',
   'PYMODULE'),
  ('pkg_resources._vendor.packaging.version',
   'c:\\program '
   'files\\python39\\lib\\site-packages\\pkg_resources\\_vendor\\packaging\\version.py',
   'PYMODULE'),
  ('pkg_resources._vendor.packaging.utils',
   'c:\\program '
   'files\\python39\\lib\\site-packages\\pkg_resources\\_vendor\\packaging\\utils.py',
   'PYMODULE'),
  ('pkg_resources._vendor.packaging.tags',
   'c:\\program '
   'files\\python39\\lib\\site-packages\\pkg_resources\\_vendor\\packaging\\tags.py',
   'PYMODULE'),
  ('pkg_resources._vendor.packaging.specifiers',
   'c:\\program '
   'files\\python39\\lib\\site-packages\\pkg_resources\\_vendor\\packaging\\specifiers.py',
   'PYMODULE'),
  ('pkg_resources._vendor.packaging.requirements',
   'c:\\program '
   'files\\python39\\lib\\site-packages\\pkg_resources\\_vendor\\packaging\\requirements.py',
   'PYMODULE'),
  ('pkg_resources._vendor.packaging.markers',
   'c:\\program '
   'files\\python39\\lib\\site-packages\\pkg_resources\\_vendor\\packaging\\markers.py',
   'PYMODULE'),
  ('pkg_resources._vendor.packaging._structures',
   'c:\\program '
   'files\\python39\\lib\\site-packages\\pkg_resources\\_vendor\\packaging\\_structures.py',
   'PYMODULE'),
  ('pkg_resources._vendor.packaging._compat',
   'c:\\program '
   'files\\python39\\lib\\site-packages\\pkg_resources\\_vendor\\packaging\\_compat.py',
   'PYMODULE'),
  ('pkg_resources._vendor.packaging.__about__',
   'c:\\program '
   'files\\python39\\lib\\site-packages\\pkg_resources\\_vendor\\packaging\\__about__.py',
   'PYMODULE'),
  ('pkg_resources._vendor.six',
   'c:\\program '
   'files\\python39\\lib\\site-packages\\pkg_resources\\_vendor\\six.py',
   'PYMODULE'),
  ('pkg_resources._vendor.pyparsing',
   'c:\\program '
   'files\\python39\\lib\\site-packages\\pkg_resources\\_vendor\\pyparsing.py',
   'PYMODULE'),
  ('uuid', 'c:\\program files\\python39\\lib\\uuid.py', 'PYMODULE'),
  ('pkg_resources._vendor.packaging',
   'c:\\program '
   'files\\python39\\lib\\site-packages\\pkg_resources\\_vendor\\packaging\\__init__.py',
   'PYMODULE'),
  ('pkg_resources._vendor.appdirs',
   'c:\\program '
   'files\\python39\\lib\\site-packages\\pkg_resources\\_vendor\\appdirs.py',
   'PYMODULE'),
  ('win32com.shell.shellcon',
   'C:\\Users\\anvanger\\AppData\\Roaming\\Python\\Python39\\site-packages\\win32comext\\shell\\shellcon.py',
   'PYMODULE'),
  ('win32com.shell',
   'C:\\Users\\anvanger\\AppData\\Roaming\\Python\\Python39\\site-packages\\win32comext\\shell\\__init__.py',
   'PYMODULE'),
  ('pkg_resources._vendor',
   'c:\\program '
   'files\\python39\\lib\\site-packages\\pkg_resources\\_vendor\\__init__.py',
   'PYMODULE'),
  ('pkg_resources.extern',
   'c:\\program '
   'files\\python39\\lib\\site-packages\\pkg_resources\\extern\\__init__.py',
   'PYMODULE'),
  ('imp', 'c:\\program files\\python39\\lib\\imp.py', 'PYMODULE'),
  ('tracemalloc',
   'c:\\program files\\python39\\lib\\tracemalloc.py',
   'PYMODULE'),
  ('stringprep', 'c:\\program files\\python39\\lib\\stringprep.py', 'PYMODULE'),
  ('_py_abc', 'c:\\program files\\python39\\lib\\_py_abc.py', 'PYMODULE'),
  ('tkinter',
   'c:\\program files\\python39\\lib\\tkinter\\__init__.py',
   'PYMODULE'),
  ('tkinter.constants',
   'c:\\program files\\python39\\lib\\tkinter\\constants.py',
   'PYMODULE'),
  ('cantools',
   'C:\\Users\\anvanger\\AppData\\Roaming\\Python\\Python39\\site-packages\\cantools\\__init__.py',
   'PYMODULE'),
  ('cantools.version',
   'C:\\Users\\anvanger\\AppData\\Roaming\\Python\\Python39\\site-packages\\cantools\\version.py',
   'PYMODULE'),
  ('cantools.database',
   'C:\\Users\\anvanger\\AppData\\Roaming\\Python\\Python39\\site-packages\\cantools\\database\\__init__.py',
   'PYMODULE'),
  ('cantools.typechecking',
   'C:\\Users\\anvanger\\AppData\\Roaming\\Python\\Python39\\site-packages\\cantools\\typechecking.py',
   'PYMODULE'),
  ('bitstruct',
   'C:\\Users\\anvanger\\AppData\\Roaming\\Python\\Python39\\site-packages\\bitstruct\\__init__.py',
   'PYMODULE'),
  ('bitstruct.version',
   'C:\\Users\\anvanger\\AppData\\Roaming\\Python\\Python39\\site-packages\\bitstruct\\version.py',
   'PYMODULE'),
  ('diskcache',
   'C:\\Users\\anvanger\\AppData\\Roaming\\Python\\Python39\\site-packages\\diskcache\\__init__.py',
   'PYMODULE'),
  ('diskcache.djangocache',
   'C:\\Users\\anvanger\\AppData\\Roaming\\Python\\Python39\\site-packages\\diskcache\\djangocache.py',
   'PYMODULE'),
  ('diskcache.recipes',
   'C:\\Users\\anvanger\\AppData\\Roaming\\Python\\Python39\\site-packages\\diskcache\\recipes.py',
   'PYMODULE'),
  ('diskcache.persistent',
   'C:\\Users\\anvanger\\AppData\\Roaming\\Python\\Python39\\site-packages\\diskcache\\persistent.py',
   'PYMODULE'),
  ('diskcache.fanout',
   'C:\\Users\\anvanger\\AppData\\Roaming\\Python\\Python39\\site-packages\\diskcache\\fanout.py',
   'PYMODULE'),
  ('sqlite3',
   'c:\\program files\\python39\\lib\\sqlite3\\__init__.py',
   'PYMODULE'),
  ('sqlite3.dump',
   'c:\\program files\\python39\\lib\\sqlite3\\dump.py',
   'PYMODULE'),
  ('sqlite3.dbapi2',
   'c:\\program files\\python39\\lib\\sqlite3\\dbapi2.py',
   'PYMODULE'),
  ('diskcache.core',
   'C:\\Users\\anvanger\\AppData\\Roaming\\Python\\Python39\\site-packages\\diskcache\\core.py',
   'PYMODULE'),
  ('pickletools',
   'c:\\program files\\python39\\lib\\pickletools.py',
   'PYMODULE'),
  ('textparser',
   'C:\\Users\\anvanger\\AppData\\Roaming\\Python\\Python39\\site-packages\\textparser.py',
   'PYMODULE'),
  ('cantools.database.utils',
   'C:\\Users\\anvanger\\AppData\\Roaming\\Python\\Python39\\site-packages\\cantools\\database\\utils.py',
   'PYMODULE'),
  ('cantools.database.can.signal',
   'C:\\Users\\anvanger\\AppData\\Roaming\\Python\\Python39\\site-packages\\cantools\\database\\can\\signal.py',
   'PYMODULE'),
  ('cantools.database.can.formats.dbc',
   'C:\\Users\\anvanger\\AppData\\Roaming\\Python\\Python39\\site-packages\\cantools\\database\\can\\formats\\dbc.py',
   'PYMODULE'),
  ('cantools.database.can.formats.utils',
   'C:\\Users\\anvanger\\AppData\\Roaming\\Python\\Python39\\site-packages\\cantools\\database\\can\\formats\\utils.py',
   'PYMODULE'),
  ('cantools.database.can.environment_variable',
   'C:\\Users\\anvanger\\AppData\\Roaming\\Python\\Python39\\site-packages\\cantools\\database\\can\\environment_variable.py',
   'PYMODULE'),
  ('cantools.database.can.internal_database',
   'C:\\Users\\anvanger\\AppData\\Roaming\\Python\\Python39\\site-packages\\cantools\\database\\can\\internal_database.py',
   'PYMODULE'),
  ('cantools.database.can.bus',
   'C:\\Users\\anvanger\\AppData\\Roaming\\Python\\Python39\\site-packages\\cantools\\database\\can\\bus.py',
   'PYMODULE'),
  ('cantools.database.can.node',
   'C:\\Users\\anvanger\\AppData\\Roaming\\Python\\Python39\\site-packages\\cantools\\database\\can\\node.py',
   'PYMODULE'),
  ('cantools.database.can.formats.arxml',
   'C:\\Users\\anvanger\\AppData\\Roaming\\Python\\Python39\\site-packages\\cantools\\database\\can\\formats\\arxml.py',
   'PYMODULE'),
  ('cantools.database.can.message',
   'C:\\Users\\anvanger\\AppData\\Roaming\\Python\\Python39\\site-packages\\cantools\\database\\can\\message.py',
   'PYMODULE'),
  ('cantools.database.can.formats',
   'C:\\Users\\anvanger\\AppData\\Roaming\\Python\\Python39\\site-packages\\cantools\\database\\can\\formats\\__init__.py',
   'PYMODULE'),
  ('cantools.database.can.formats.sym',
   'C:\\Users\\anvanger\\AppData\\Roaming\\Python\\Python39\\site-packages\\cantools\\database\\can\\formats\\sym.py',
   'PYMODULE'),
  ('cantools.database.can.formats.kcd',
   'C:\\Users\\anvanger\\AppData\\Roaming\\Python\\Python39\\site-packages\\cantools\\database\\can\\formats\\kcd.py',
   'PYMODULE'),
  ('cantools.database.can.signal_group',
   'C:\\Users\\anvanger\\AppData\\Roaming\\Python\\Python39\\site-packages\\cantools\\database\\can\\signal_group.py',
   'PYMODULE'),
  ('cantools.database.can.attribute',
   'C:\\Users\\anvanger\\AppData\\Roaming\\Python\\Python39\\site-packages\\cantools\\database\\can\\attribute.py',
   'PYMODULE'),
  ('cantools.database.can.attribute_definition',
   'C:\\Users\\anvanger\\AppData\\Roaming\\Python\\Python39\\site-packages\\cantools\\database\\can\\attribute_definition.py',
   'PYMODULE'),
  ('cantools.database.diagnostics',
   'C:\\Users\\anvanger\\AppData\\Roaming\\Python\\Python39\\site-packages\\cantools\\database\\diagnostics\\__init__.py',
   'PYMODULE'),
  ('cantools.database.diagnostics.data',
   'C:\\Users\\anvanger\\AppData\\Roaming\\Python\\Python39\\site-packages\\cantools\\database\\diagnostics\\data.py',
   'PYMODULE'),
  ('cantools.database.diagnostics.did',
   'C:\\Users\\anvanger\\AppData\\Roaming\\Python\\Python39\\site-packages\\cantools\\database\\diagnostics\\did.py',
   'PYMODULE'),
  ('cantools.database.diagnostics.database',
   'C:\\Users\\anvanger\\AppData\\Roaming\\Python\\Python39\\site-packages\\cantools\\database\\diagnostics\\database.py',
   'PYMODULE'),
  ('cantools.database.diagnostics.formats.cdd',
   'C:\\Users\\anvanger\\AppData\\Roaming\\Python\\Python39\\site-packages\\cantools\\database\\diagnostics\\formats\\cdd.py',
   'PYMODULE'),
  ('cantools.database.diagnostics.internal_database',
   'C:\\Users\\anvanger\\AppData\\Roaming\\Python\\Python39\\site-packages\\cantools\\database\\diagnostics\\internal_database.py',
   'PYMODULE'),
  ('cantools.database.diagnostics.formats',
   'C:\\Users\\anvanger\\AppData\\Roaming\\Python\\Python39\\site-packages\\cantools\\database\\diagnostics\\formats\\__init__.py',
   'PYMODULE'),
  ('cantools.database.can',
   'C:\\Users\\anvanger\\AppData\\Roaming\\Python\\Python39\\site-packages\\cantools\\database\\can\\__init__.py',
   'PYMODULE'),
  ('cantools.database.can.database',
   'C:\\Users\\anvanger\\AppData\\Roaming\\Python\\Python39\\site-packages\\cantools\\database\\can\\database.py',
   'PYMODULE'),
  ('cantools.compat',
   'C:\\Users\\anvanger\\AppData\\Roaming\\Python\\Python39\\site-packages\\cantools\\compat.py',
   'PYMODULE'),
  ('cantools.database.errors',
   'C:\\Users\\anvanger\\AppData\\Roaming\\Python\\Python39\\site-packages\\cantools\\database\\errors.py',
   'PYMODULE'),
  ('xml.etree.ElementTree',
   'c:\\program files\\python39\\lib\\xml\\etree\\ElementTree.py',
   'PYMODULE'),
  ('xml.etree.cElementTree',
   'c:\\program files\\python39\\lib\\xml\\etree\\cElementTree.py',
   'PYMODULE'),
  ('xml.etree.ElementInclude',
   'c:\\program files\\python39\\lib\\xml\\etree\\ElementInclude.py',
   'PYMODULE'),
  ('xml.etree.ElementPath',
   'c:\\program files\\python39\\lib\\xml\\etree\\ElementPath.py',
   'PYMODULE'),
  ('xml.etree',
   'c:\\program files\\python39\\lib\\xml\\etree\\__init__.py',
   'PYMODULE'),
  ('cantools.errors',
   'C:\\Users\\anvanger\\AppData\\Roaming\\Python\\Python39\\site-packages\\cantools\\errors.py',
   'PYMODULE'),
  ('cantools.logreader',
   'C:\\Users\\anvanger\\AppData\\Roaming\\Python\\Python39\\site-packages\\cantools\\logreader.py',
   'PYMODULE'),
  ('cantools.j1939',
   'C:\\Users\\anvanger\\AppData\\Roaming\\Python\\Python39\\site-packages\\cantools\\j1939.py',
   'PYMODULE'),
  ('cantools.tester',
   'C:\\Users\\anvanger\\AppData\\Roaming\\Python\\Python39\\site-packages\\cantools\\tester.py',
   'PYMODULE'),
  ('can.interfaces.ixxat',
   'C:\\Users\\anvanger\\AppData\\Roaming\\Python\\Python39\\site-packages\\can\\interfaces\\ixxat\\__init__.py',
   'PYMODULE'),
  ('can.interfaces.ixxat.canlib',
   'C:\\Users\\anvanger\\AppData\\Roaming\\Python\\Python39\\site-packages\\can\\interfaces\\ixxat\\canlib.py',
   'PYMODULE'),
  ('can.interfaces.ixxat.exceptions',
   'C:\\Users\\anvanger\\AppData\\Roaming\\Python\\Python39\\site-packages\\can\\interfaces\\ixxat\\exceptions.py',
   'PYMODULE'),
  ('can.ctypesutil',
   'C:\\Users\\anvanger\\AppData\\Roaming\\Python\\Python39\\site-packages\\can\\ctypesutil.py',
   'PYMODULE'),
  ('can.broadcastmanager',
   'C:\\Users\\anvanger\\AppData\\Roaming\\Python\\Python39\\site-packages\\can\\broadcastmanager.py',
   'PYMODULE'),
  ('can.message',
   'C:\\Users\\anvanger\\AppData\\Roaming\\Python\\Python39\\site-packages\\can\\message.py',
   'PYMODULE'),
  ('can.bus',
   'C:\\Users\\anvanger\\AppData\\Roaming\\Python\\Python39\\site-packages\\can\\bus.py',
   'PYMODULE'),
  ('can.typechecking',
   'C:\\Users\\anvanger\\AppData\\Roaming\\Python\\Python39\\site-packages\\can\\typechecking.py',
   'PYMODULE'),
  ('can.exceptions',
   'C:\\Users\\anvanger\\AppData\\Roaming\\Python\\Python39\\site-packages\\can\\exceptions.py',
   'PYMODULE'),
  ('can.interfaces.ixxat.structures',
   'C:\\Users\\anvanger\\AppData\\Roaming\\Python\\Python39\\site-packages\\can\\interfaces\\ixxat\\structures.py',
   'PYMODULE'),
  ('can.interfaces.ixxat.constants',
   'C:\\Users\\anvanger\\AppData\\Roaming\\Python\\Python39\\site-packages\\can\\interfaces\\ixxat\\constants.py',
   'PYMODULE'),
  ('can.interfaces',
   'C:\\Users\\anvanger\\AppData\\Roaming\\Python\\Python39\\site-packages\\can\\interfaces\\__init__.py',
   'PYMODULE'),
  ('can',
   'C:\\Users\\anvanger\\AppData\\Roaming\\Python\\Python39\\site-packages\\can\\__init__.py',
   'PYMODULE'),
  ('can.bit_timing',
   'C:\\Users\\anvanger\\AppData\\Roaming\\Python\\Python39\\site-packages\\can\\bit_timing.py',
   'PYMODULE'),
  ('can.interface',
   'C:\\Users\\anvanger\\AppData\\Roaming\\Python\\Python39\\site-packages\\can\\interface.py',
   'PYMODULE'),
  ('can.notifier',
   'C:\\Users\\anvanger\\AppData\\Roaming\\Python\\Python39\\site-packages\\can\\notifier.py',
   'PYMODULE'),
  ('can.thread_safe_bus',
   'C:\\Users\\anvanger\\AppData\\Roaming\\Python\\Python39\\site-packages\\can\\thread_safe_bus.py',
   'PYMODULE'),
  ('wrapt',
   'C:\\Users\\anvanger\\AppData\\Roaming\\Python\\Python39\\site-packages\\wrapt\\__init__.py',
   'PYMODULE'),
  ('wrapt.importer',
   'C:\\Users\\anvanger\\AppData\\Roaming\\Python\\Python39\\site-packages\\wrapt\\importer.py',
   'PYMODULE'),
  ('wrapt.decorators',
   'C:\\Users\\anvanger\\AppData\\Roaming\\Python\\Python39\\site-packages\\wrapt\\decorators.py',
   'PYMODULE'),
  ('wrapt.wrappers',
   'C:\\Users\\anvanger\\AppData\\Roaming\\Python\\Python39\\site-packages\\wrapt\\wrappers.py',
   'PYMODULE'),
  ('can.util',
   'C:\\Users\\anvanger\\AppData\\Roaming\\Python\\Python39\\site-packages\\can\\util.py',
   'PYMODULE'),
  ('can.io',
   'C:\\Users\\anvanger\\AppData\\Roaming\\Python\\Python39\\site-packages\\can\\io\\__init__.py',
   'PYMODULE'),
  ('can.io.printer',
   'C:\\Users\\anvanger\\AppData\\Roaming\\Python\\Python39\\site-packages\\can\\io\\printer.py',
   'PYMODULE'),
  ('can.io.generic',
   'C:\\Users\\anvanger\\AppData\\Roaming\\Python\\Python39\\site-packages\\can\\io\\generic.py',
   'PYMODULE'),
  ('can.io.sqlite',
   'C:\\Users\\anvanger\\AppData\\Roaming\\Python\\Python39\\site-packages\\can\\io\\sqlite.py',
   'PYMODULE'),
  ('can.io.csv',
   'C:\\Users\\anvanger\\AppData\\Roaming\\Python\\Python39\\site-packages\\can\\io\\csv.py',
   'PYMODULE'),
  ('can.io.canutils',
   'C:\\Users\\anvanger\\AppData\\Roaming\\Python\\Python39\\site-packages\\can\\io\\canutils.py',
   'PYMODULE'),
  ('can.io.blf',
   'C:\\Users\\anvanger\\AppData\\Roaming\\Python\\Python39\\site-packages\\can\\io\\blf.py',
   'PYMODULE'),
  ('can.io.asc',
   'C:\\Users\\anvanger\\AppData\\Roaming\\Python\\Python39\\site-packages\\can\\io\\asc.py',
   'PYMODULE'),
  ('can.io.player',
   'C:\\Users\\anvanger\\AppData\\Roaming\\Python\\Python39\\site-packages\\can\\io\\player.py',
   'PYMODULE'),
  ('can.io.logger',
   'C:\\Users\\anvanger\\AppData\\Roaming\\Python\\Python39\\site-packages\\can\\io\\logger.py',
   'PYMODULE'),
  ('can.listener',
   'C:\\Users\\anvanger\\AppData\\Roaming\\Python\\Python39\\site-packages\\can\\listener.py',
   'PYMODULE'),
  ('canopen',
   'C:\\Users\\anvanger\\AppData\\Roaming\\Python\\Python39\\site-packages\\canopen\\__init__.py',
   'PYMODULE'),
  ('canopen._version',
   'C:\\Users\\anvanger\\AppData\\Roaming\\Python\\Python39\\site-packages\\canopen\\_version.py',
   'PYMODULE'),
  ('canopen.profiles.p402',
   'C:\\Users\\anvanger\\AppData\\Roaming\\Python\\Python39\\site-packages\\canopen\\profiles\\p402.py',
   'PYMODULE'),
  ('canopen.profiles',
   'C:\\Users\\anvanger\\AppData\\Roaming\\Python\\Python39\\site-packages\\canopen\\profiles\\__init__.py',
   'PYMODULE'),
  ('canopen.sdo',
   'C:\\Users\\anvanger\\AppData\\Roaming\\Python\\Python39\\site-packages\\canopen\\sdo\\__init__.py',
   'PYMODULE'),
  ('canopen.sdo.exceptions',
   'C:\\Users\\anvanger\\AppData\\Roaming\\Python\\Python39\\site-packages\\canopen\\sdo\\exceptions.py',
   'PYMODULE'),
  ('canopen.sdo.server',
   'C:\\Users\\anvanger\\AppData\\Roaming\\Python\\Python39\\site-packages\\canopen\\sdo\\server.py',
   'PYMODULE'),
  ('canopen.sdo.constants',
   'C:\\Users\\anvanger\\AppData\\Roaming\\Python\\Python39\\site-packages\\canopen\\sdo\\constants.py',
   'PYMODULE'),
  ('canopen.sdo.client',
   'C:\\Users\\anvanger\\AppData\\Roaming\\Python\\Python39\\site-packages\\canopen\\sdo\\client.py',
   'PYMODULE'),
  ('canopen.sdo.base',
   'C:\\Users\\anvanger\\AppData\\Roaming\\Python\\Python39\\site-packages\\canopen\\sdo\\base.py',
   'PYMODULE'),
  ('canopen.node',
   'C:\\Users\\anvanger\\AppData\\Roaming\\Python\\Python39\\site-packages\\canopen\\node\\__init__.py',
   'PYMODULE'),
  ('canopen.node.local',
   'C:\\Users\\anvanger\\AppData\\Roaming\\Python\\Python39\\site-packages\\canopen\\node\\local.py',
   'PYMODULE'),
  ('canopen.emcy',
   'C:\\Users\\anvanger\\AppData\\Roaming\\Python\\Python39\\site-packages\\canopen\\emcy.py',
   'PYMODULE'),
  ('canopen.nmt',
   'C:\\Users\\anvanger\\AppData\\Roaming\\Python\\Python39\\site-packages\\canopen\\nmt.py',
   'PYMODULE'),
  ('canopen.pdo',
   'C:\\Users\\anvanger\\AppData\\Roaming\\Python\\Python39\\site-packages\\canopen\\pdo\\__init__.py',
   'PYMODULE'),
  ('canopen.pdo.base',
   'C:\\Users\\anvanger\\AppData\\Roaming\\Python\\Python39\\site-packages\\canopen\\pdo\\base.py',
   'PYMODULE'),
  ('canmatrix.formats',
   'C:\\Users\\anvanger\\AppData\\Roaming\\Python\\Python39\\site-packages\\canmatrix\\formats\\__init__.py',
   'PYMODULE'),
  ('canmatrix.cancluster',
   'C:\\Users\\anvanger\\AppData\\Roaming\\Python\\Python39\\site-packages\\canmatrix\\cancluster.py',
   'PYMODULE'),
  ('canmatrix.canmatrix',
   'C:\\Users\\anvanger\\AppData\\Roaming\\Python\\Python39\\site-packages\\canmatrix\\canmatrix.py',
   'PYMODULE'),
  ('canmatrix.utils',
   'C:\\Users\\anvanger\\AppData\\Roaming\\Python\\Python39\\site-packages\\canmatrix\\utils.py',
   'PYMODULE'),
  ('canmatrix.types',
   'C:\\Users\\anvanger\\AppData\\Roaming\\Python\\Python39\\site-packages\\canmatrix\\types.py',
   'PYMODULE'),
  ('canmatrix.copy',
   'C:\\Users\\anvanger\\AppData\\Roaming\\Python\\Python39\\site-packages\\canmatrix\\copy.py',
   'PYMODULE'),
  ('six',
   'C:\\Users\\anvanger\\AppData\\Roaming\\Python\\Python39\\site-packages\\six.py',
   'PYMODULE'),
  ('past.builtins',
   'c:\\program '
   'files\\python39\\lib\\site-packages\\past\\builtins\\__init__.py',
   'PYMODULE'),
  ('past.utils',
   'c:\\program files\\python39\\lib\\site-packages\\past\\utils\\__init__.py',
   'PYMODULE'),
  ('past.builtins.misc',
   'c:\\program files\\python39\\lib\\site-packages\\past\\builtins\\misc.py',
   'PYMODULE'),
  ('past.types.oldstr',
   'c:\\program files\\python39\\lib\\site-packages\\past\\types\\oldstr.py',
   'PYMODULE'),
  ('past.types.olddict',
   'c:\\program files\\python39\\lib\\site-packages\\past\\types\\olddict.py',
   'PYMODULE'),
  ('past.types.basestring',
   'c:\\program '
   'files\\python39\\lib\\site-packages\\past\\types\\basestring.py',
   'PYMODULE'),
  ('past.types',
   'c:\\program files\\python39\\lib\\site-packages\\past\\types\\__init__.py',
   'PYMODULE'),
  ('past.builtins.noniterators',
   'c:\\program '
   'files\\python39\\lib\\site-packages\\past\\builtins\\noniterators.py',
   'PYMODULE'),
  ('past',
   'c:\\program files\\python39\\lib\\site-packages\\past\\__init__.py',
   'PYMODULE'),
  ('future',
   'c:\\program files\\python39\\lib\\site-packages\\future\\__init__.py',
   'PYMODULE'),
  ('future.standard_library',
   'c:\\program '
   'files\\python39\\lib\\site-packages\\future\\standard_library\\__init__.py',
   'PYMODULE'),
  ('future.moves.dbm.ndbm',
   'c:\\program '
   'files\\python39\\lib\\site-packages\\future\\moves\\dbm\\ndbm.py',
   'PYMODULE'),
  ('dbm.ndbm', 'c:\\program files\\python39\\lib\\dbm\\ndbm.py', 'PYMODULE'),
  ('future.moves.dbm.gnu',
   'c:\\program '
   'files\\python39\\lib\\site-packages\\future\\moves\\dbm\\gnu.py',
   'PYMODULE'),
  ('dbm.gnu', 'c:\\program files\\python39\\lib\\dbm\\gnu.py', 'PYMODULE'),
  ('future.moves.dbm.dumb',
   'c:\\program '
   'files\\python39\\lib\\site-packages\\future\\moves\\dbm\\dumb.py',
   'PYMODULE'),
  ('dbm.dumb', 'c:\\program files\\python39\\lib\\dbm\\dumb.py', 'PYMODULE'),
  ('future.moves.dbm',
   'c:\\program '
   'files\\python39\\lib\\site-packages\\future\\moves\\dbm\\__init__.py',
   'PYMODULE'),
  ('future.moves',
   'c:\\program '
   'files\\python39\\lib\\site-packages\\future\\moves\\__init__.py',
   'PYMODULE'),
  ('dbm', 'c:\\program files\\python39\\lib\\dbm\\__init__.py', 'PYMODULE'),
  ('future.moves.test.support',
   'c:\\program '
   'files\\python39\\lib\\site-packages\\future\\moves\\test\\support.py',
   'PYMODULE'),
  ('test.test_support',
   'c:\\program files\\python39\\lib\\test\\test_support.py',
   'PYMODULE'),
  ('sched', 'c:\\program files\\python39\\lib\\sched.py', 'PYMODULE'),
  ('test.support.socket_helper',
   'c:\\program files\\python39\\lib\\test\\support\\socket_helper.py',
   'PYMODULE'),
  ('nntplib', 'c:\\program files\\python39\\lib\\nntplib.py', 'PYMODULE'),
  ('test.support.script_helper',
   'c:\\program files\\python39\\lib\\test\\support\\script_helper.py',
   'PYMODULE'),
  ('test.support',
   'c:\\program files\\python39\\lib\\test\\support\\__init__.py',
   'PYMODULE'),
  ('ctypes.util',
   'c:\\program files\\python39\\lib\\ctypes\\util.py',
   'PYMODULE'),
  ('ctypes._aix',
   'c:\\program files\\python39\\lib\\ctypes\\_aix.py',
   'PYMODULE'),
  ('ctypes.macholib.dyld',
   'c:\\program files\\python39\\lib\\ctypes\\macholib\\dyld.py',
   'PYMODULE'),
  ('ctypes.macholib',
   'c:\\program files\\python39\\lib\\ctypes\\macholib\\__init__.py',
   'PYMODULE'),
  ('ctypes.macholib.dylib',
   'c:\\program files\\python39\\lib\\ctypes\\macholib\\dylib.py',
   'PYMODULE'),
  ('ctypes.macholib.framework',
   'c:\\program files\\python39\\lib\\ctypes\\macholib\\framework.py',
   'PYMODULE'),
  ('ctypes.wintypes',
   'c:\\program files\\python39\\lib\\ctypes\\wintypes.py',
   'PYMODULE'),
  ('test.support.testresult',
   'c:\\program files\\python39\\lib\\test\\support\\testresult.py',
   'PYMODULE'),
  ('future.moves.test',
   'c:\\program '
   'files\\python39\\lib\\site-packages\\future\\moves\\test\\__init__.py',
   'PYMODULE'),
  ('test', 'c:\\program files\\python39\\lib\\test\\__init__.py', 'PYMODULE'),
  ('future.backports.urllib.robotparser',
   'c:\\program '
   'files\\python39\\lib\\site-packages\\future\\backports\\urllib\\robotparser.py',
   'PYMODULE'),
  ('future.backports',
   'c:\\program '
   'files\\python39\\lib\\site-packages\\future\\backports\\__init__.py',
   'PYMODULE'),
  ('future.backports.misc',
   'c:\\program '
   'files\\python39\\lib\\site-packages\\future\\backports\\misc.py',
   'PYMODULE'),
  ('future.backports.email',
   'c:\\program '
   'files\\python39\\lib\\site-packages\\future\\backports\\email\\__init__.py',
   'PYMODULE'),
  ('future.backports.email.parser',
   'c:\\program '
   'files\\python39\\lib\\site-packages\\future\\backports\\email\\parser.py',
   'PYMODULE'),
  ('future.backports.email._policybase',
   'c:\\program '
   'files\\python39\\lib\\site-packages\\future\\backports\\email\\_policybase.py',
   'PYMODULE'),
  ('future.backports.email.charset',
   'c:\\program '
   'files\\python39\\lib\\site-packages\\future\\backports\\email\\charset.py',
   'PYMODULE'),
  ('future.backports.email.encoders',
   'c:\\program '
   'files\\python39\\lib\\site-packages\\future\\backports\\email\\encoders.py',
   'PYMODULE'),
  ('future.backports.email.feedparser',
   'c:\\program '
   'files\\python39\\lib\\site-packages\\future\\backports\\email\\feedparser.py',
   'PYMODULE'),
  ('future.backports.email.message',
   'c:\\program '
   'files\\python39\\lib\\site-packages\\future\\backports\\email\\message.py',
   'PYMODULE'),
  ('future.backports.email.iterators',
   'c:\\program '
   'files\\python39\\lib\\site-packages\\future\\backports\\email\\iterators.py',
   'PYMODULE'),
  ('future.backports.email.generator',
   'c:\\program '
   'files\\python39\\lib\\site-packages\\future\\backports\\email\\generator.py',
   'PYMODULE'),
  ('future.backports.email._encoded_words',
   'c:\\program '
   'files\\python39\\lib\\site-packages\\future\\backports\\email\\_encoded_words.py',
   'PYMODULE'),
  ('future.backports.email.header',
   'c:\\program '
   'files\\python39\\lib\\site-packages\\future\\backports\\email\\header.py',
   'PYMODULE'),
  ('future.backports.email.quoprimime',
   'c:\\program '
   'files\\python39\\lib\\site-packages\\future\\backports\\email\\quoprimime.py',
   'PYMODULE'),
  ('future.backports.email.base64mime',
   'c:\\program '
   'files\\python39\\lib\\site-packages\\future\\backports\\email\\base64mime.py',
   'PYMODULE'),
  ('future.backports.email.utils',
   'c:\\program '
   'files\\python39\\lib\\site-packages\\future\\backports\\email\\utils.py',
   'PYMODULE'),
  ('future.backports.email._parseaddr',
   'c:\\program '
   'files\\python39\\lib\\site-packages\\future\\backports\\email\\_parseaddr.py',
   'PYMODULE'),
  ('future.backports.email.errors',
   'c:\\program '
   'files\\python39\\lib\\site-packages\\future\\backports\\email\\errors.py',
   'PYMODULE'),
  ('future.utils.surrogateescape',
   'c:\\program '
   'files\\python39\\lib\\site-packages\\future\\utils\\surrogateescape.py',
   'PYMODULE'),
  ('future.backports.datetime',
   'c:\\program '
   'files\\python39\\lib\\site-packages\\future\\backports\\datetime.py',
   'PYMODULE'),
  ('future.builtins',
   'c:\\program '
   'files\\python39\\lib\\site-packages\\future\\builtins\\__init__.py',
   'PYMODULE'),
  ('future.types.newstr',
   'c:\\program files\\python39\\lib\\site-packages\\future\\types\\newstr.py',
   'PYMODULE'),
  ('future.types.newrange',
   'c:\\program '
   'files\\python39\\lib\\site-packages\\future\\types\\newrange.py',
   'PYMODULE'),
  ('future.types.newobject',
   'c:\\program '
   'files\\python39\\lib\\site-packages\\future\\types\\newobject.py',
   'PYMODULE'),
  ('future.types.newlist',
   'c:\\program files\\python39\\lib\\site-packages\\future\\types\\newlist.py',
   'PYMODULE'),
  ('future.types.newint',
   'c:\\program files\\python39\\lib\\site-packages\\future\\types\\newint.py',
   'PYMODULE'),
  ('future.types.newdict',
   'c:\\program files\\python39\\lib\\site-packages\\future\\types\\newdict.py',
   'PYMODULE'),
  ('future.types.newbytes',
   'c:\\program '
   'files\\python39\\lib\\site-packages\\future\\types\\newbytes.py',
   'PYMODULE'),
  ('future.types',
   'c:\\program '
   'files\\python39\\lib\\site-packages\\future\\types\\__init__.py',
   'PYMODULE'),
  ('future.builtins.misc',
   'c:\\program files\\python39\\lib\\site-packages\\future\\builtins\\misc.py',
   'PYMODULE'),
  ('future.builtins.new_min_max',
   'c:\\program '
   'files\\python39\\lib\\site-packages\\future\\builtins\\new_min_max.py',
   'PYMODULE'),
  ('future.builtins.newsuper',
   'c:\\program '
   'files\\python39\\lib\\site-packages\\future\\builtins\\newsuper.py',
   'PYMODULE'),
  ('future.builtins.newround',
   'c:\\program '
   'files\\python39\\lib\\site-packages\\future\\builtins\\newround.py',
   'PYMODULE'),
  ('future.builtins.newnext',
   'c:\\program '
   'files\\python39\\lib\\site-packages\\future\\builtins\\newnext.py',
   'PYMODULE'),
  ('future.builtins.iterators',
   'c:\\program '
   'files\\python39\\lib\\site-packages\\future\\builtins\\iterators.py',
   'PYMODULE'),
  ('future.backports.urllib.error',
   'c:\\program '
   'files\\python39\\lib\\site-packages\\future\\backports\\urllib\\error.py',
   'PYMODULE'),
  ('future.backports.urllib.parse',
   'c:\\program '
   'files\\python39\\lib\\site-packages\\future\\backports\\urllib\\parse.py',
   'PYMODULE'),
  ('future.backports.urllib.response',
   'c:\\program '
   'files\\python39\\lib\\site-packages\\future\\backports\\urllib\\response.py',
   'PYMODULE'),
  ('future.backports.urllib.request',
   'c:\\program '
   'files\\python39\\lib\\site-packages\\future\\backports\\urllib\\request.py',
   'PYMODULE'),
  ('future.backports.http.cookiejar',
   'c:\\program '
   'files\\python39\\lib\\site-packages\\future\\backports\\http\\cookiejar.py',
   'PYMODULE'),
  ('future.backports.http.client',
   'c:\\program '
   'files\\python39\\lib\\site-packages\\future\\backports\\http\\client.py',
   'PYMODULE'),
  ('future.backports.http',
   'c:\\program '
   'files\\python39\\lib\\site-packages\\future\\backports\\http\\__init__.py',
   'PYMODULE'),
  ('future.backports.urllib',
   'c:\\program '
   'files\\python39\\lib\\site-packages\\future\\backports\\urllib\\__init__.py',
   'PYMODULE'),
  ('future.utils',
   'c:\\program '
   'files\\python39\\lib\\site-packages\\future\\utils\\__init__.py',
   'PYMODULE'),
  ('attr',
   'C:\\Users\\anvanger\\AppData\\Roaming\\Python\\Python39\\site-packages\\attr\\__init__.py',
   'PYMODULE'),
  ('attr._next_gen',
   'C:\\Users\\anvanger\\AppData\\Roaming\\Python\\Python39\\site-packages\\attr\\_next_gen.py',
   'PYMODULE'),
  ('attr._version_info',
   'C:\\Users\\anvanger\\AppData\\Roaming\\Python\\Python39\\site-packages\\attr\\_version_info.py',
   'PYMODULE'),
  ('attr._make',
   'C:\\Users\\anvanger\\AppData\\Roaming\\Python\\Python39\\site-packages\\attr\\_make.py',
   'PYMODULE'),
  ('attr._compat',
   'C:\\Users\\anvanger\\AppData\\Roaming\\Python\\Python39\\site-packages\\attr\\_compat.py',
   'PYMODULE'),
  ('attr._funcs',
   'C:\\Users\\anvanger\\AppData\\Roaming\\Python\\Python39\\site-packages\\attr\\_funcs.py',
   'PYMODULE'),
  ('attr._cmp',
   'C:\\Users\\anvanger\\AppData\\Roaming\\Python\\Python39\\site-packages\\attr\\_cmp.py',
   'PYMODULE'),
  ('attr.validators',
   'C:\\Users\\anvanger\\AppData\\Roaming\\Python\\Python39\\site-packages\\attr\\validators.py',
   'PYMODULE'),
  ('attr.filters',
   'C:\\Users\\anvanger\\AppData\\Roaming\\Python\\Python39\\site-packages\\attr\\filters.py',
   'PYMODULE'),
  ('attr.exceptions',
   'C:\\Users\\anvanger\\AppData\\Roaming\\Python\\Python39\\site-packages\\attr\\exceptions.py',
   'PYMODULE'),
  ('attr.converters',
   'C:\\Users\\anvanger\\AppData\\Roaming\\Python\\Python39\\site-packages\\attr\\converters.py',
   'PYMODULE'),
  ('attr.setters',
   'C:\\Users\\anvanger\\AppData\\Roaming\\Python\\Python39\\site-packages\\attr\\setters.py',
   'PYMODULE'),
  ('attr._config',
   'C:\\Users\\anvanger\\AppData\\Roaming\\Python\\Python39\\site-packages\\attr\\_config.py',
   'PYMODULE'),
  ('canmatrix',
   'C:\\Users\\anvanger\\AppData\\Roaming\\Python\\Python39\\site-packages\\canmatrix\\__init__.py',
   'PYMODULE'),
  ('canmatrix._version',
   'C:\\Users\\anvanger\\AppData\\Roaming\\Python\\Python39\\site-packages\\canmatrix\\_version.py',
   'PYMODULE'),
  ('canopen.node.base',
   'C:\\Users\\anvanger\\AppData\\Roaming\\Python\\Python39\\site-packages\\canopen\\node\\base.py',
   'PYMODULE'),
  ('canopen.node.remote',
   'C:\\Users\\anvanger\\AppData\\Roaming\\Python\\Python39\\site-packages\\canopen\\node\\remote.py',
   'PYMODULE'),
  ('canopen.network',
   'C:\\Users\\anvanger\\AppData\\Roaming\\Python\\Python39\\site-packages\\canopen\\network.py',
   'PYMODULE'),
  ('canopen.objectdictionary.eds',
   'C:\\Users\\anvanger\\AppData\\Roaming\\Python\\Python39\\site-packages\\canopen\\objectdictionary\\eds.py',
   'PYMODULE'),
  ('canopen.lss',
   'C:\\Users\\anvanger\\AppData\\Roaming\\Python\\Python39\\site-packages\\canopen\\lss.py',
   'PYMODULE'),
  ('canopen.timestamp',
   'C:\\Users\\anvanger\\AppData\\Roaming\\Python\\Python39\\site-packages\\canopen\\timestamp.py',
   'PYMODULE'),
  ('canopen.sync',
   'C:\\Users\\anvanger\\AppData\\Roaming\\Python\\Python39\\site-packages\\canopen\\sync.py',
   'PYMODULE'),
  ('canopen.variable',
   'C:\\Users\\anvanger\\AppData\\Roaming\\Python\\Python39\\site-packages\\canopen\\variable.py',
   'PYMODULE'),
  ('canopen.objectdictionary',
   'C:\\Users\\anvanger\\AppData\\Roaming\\Python\\Python39\\site-packages\\canopen\\objectdictionary\\__init__.py',
   'PYMODULE'),
  ('canopen.objectdictionary.epf',
   'C:\\Users\\anvanger\\AppData\\Roaming\\Python\\Python39\\site-packages\\canopen\\objectdictionary\\epf.py',
   'PYMODULE'),
  ('canopen.objectdictionary.datatypes',
   'C:\\Users\\anvanger\\AppData\\Roaming\\Python\\Python39\\site-packages\\canopen\\objectdictionary\\datatypes.py',
   'PYMODULE')])
